\boolfalse {citerequest}\boolfalse {citetracker}\boolfalse {pagetracker}\boolfalse {backtracker}\relax 
\babel@toc {ngerman}{}
\defcounter {refsection}{0}\relax 
\contentsline {section}{\numberline {1}Einleitung}{1}{section.1}
\defcounter {refsection}{0}\relax 
\contentsline {section}{\numberline {2}CA2: Ensemble Learning}{2}{section.2}
\defcounter {refsection}{0}\relax 
\contentsline {subsection}{\numberline {2.1}Architektur}{2}{subsection.2.1}
\defcounter {refsection}{0}\relax 
\contentsline {subsection}{\numberline {2.2}Eingangsparameter}{3}{subsection.2.2}
\defcounter {refsection}{0}\relax 
\contentsline {subsection}{\numberline {2.3}Funktionalit\IeC {\"a}t und Ablauf}{3}{subsection.2.3}
\defcounter {refsection}{0}\relax 
\contentsline {subsection}{\numberline {2.4}Ergebnis}{4}{subsection.2.4}
\defcounter {refsection}{0}\relax 
\contentsline {section}{\numberline {3}CA3: Bayes-Filter}{5}{section.3}
\defcounter {refsection}{0}\relax 
\contentsline {subsection}{\numberline {3.1}Architektur}{5}{subsection.3.1}
\defcounter {refsection}{0}\relax 
\contentsline {subsection}{\numberline {3.2}Einangsparameter}{6}{subsection.3.2}
\defcounter {refsection}{0}\relax 
\contentsline {subsection}{\numberline {3.3}Funktionalit\IeC {\"a}t und Ablauf}{6}{subsection.3.3}
\defcounter {refsection}{0}\relax 
\contentsline {subsection}{\numberline {3.4}Ergebnis}{8}{subsection.3.4}
\defcounter {refsection}{0}\relax 
\contentsline {section}{\numberline {4}Abbildungen}{9}{section.4}
